%YAML 1.1
%TAG !u! tag:unity3d.com,2011:
--- !u!114 &11400000
MonoBehaviour:
  m_ObjectHideFlags: 0
  m_CorrespondingSourceObject: {fileID: 0}
  m_PrefabInstance: {fileID: 0}
  m_PrefabAsset: {fileID: 0}
  m_GameObject: {fileID: 0}
  m_Enabled: 1
  m_EditorHideFlags: 0
  m_Script: {fileID: 11500000, guid: cf48e4c092c403643baba227948bd763, type: 3}
  m_Name: worldTiles
  m_EditorClassIdentifier: 
  atlas:
  - name: water0
    type: 1
    sprite: {fileID: -4296797246778285341, guid: 6a8fc9e85e0a0b34d9f04ed44d04fb03,
      type: 3}
    dimensions: {x: 64, y: 64}
  - name: water1
    type: 1
    sprite: {fileID: -5810353807234261862, guid: 6a8fc9e85e0a0b34d9f04ed44d04fb03,
      type: 3}
    dimensions: {x: 64, y: 64}
  - name: sand0
    type: 2
    sprite: {fileID: 604275587556830283, guid: 6a8fc9e85e0a0b34d9f04ed44d04fb03, type: 3}
    dimensions: {x: 64, y: 64}
  - name: sand1
    type: 2
    sprite: {fileID: -2939413750740525091, guid: 6a8fc9e85e0a0b34d9f04ed44d04fb03,
      type: 3}
    dimensions: {x: 64, y: 64}
  - name: grass0
    type: 3
    sprite: {fileID: -5845998852975042789, guid: 6a8fc9e85e0a0b34d9f04ed44d04fb03,
      type: 3}
    dimensions: {x: 64, y: 64}
  - name: rock0
    type: 4
    sprite: {fileID: -2592583319555175361, guid: 6a8fc9e85e0a0b34d9f04ed44d04fb03,
      type: 3}
    dimensions: {x: 64, y: 64}
  - name: rock1
    type: 4
    sprite: {fileID: -3925247599785115987, guid: 6a8fc9e85e0a0b34d9f04ed44d04fb03,
      type: 3}
    dimensions: {x: 64, y: 64}
